{
  "responeList": [
    {
      "nowDate": 0,
      "operate": 0,
      "nickname": "鲁班一号",
      "headimgurl": "",
      "crtDateTime": 0
    },
    {
      "nowDate": 0,
      "operate": 1,
      "nickname": "鲁班一号",
      "headimgurl": "",
      "crtDateTime": 0
    },
    {
      "nowDate": 0,
      "operate": 0,
      "nickname": "鲁班一号",
      "headimgurl": "",
      "crtDateTime": 0
    },
    {
      "nowDate": 0,
      "operate": 0,
      "nickname": "鲁班一号",
      "headimgurl": "",
      "crtDateTime": 0
    },
    {
      "nowDate": 0,
      "operate": 0,
      "nickname": "鲁班一号",
      "headimgurl": "",
      "crtDateTime": 0
    },
    {
      "nowDate": 0,
      "operate": 0,
      "nickname": "鲁班一号",
      "headimgurl": "",
      "crtDateTime": 0
    },
    {
      "nowDate": 0,
      "operate": 0,
      "nickname": "鲁班一号",
      "headimgurl": "",
      "crtDateTime": 0
    },
    {
      "nowDate": 0,
      "operate": 0,
      "nickname": "鲁班一号",
      "headimgurl": "",
      "crtDateTime": 0
    },
    {
      "nowDate": 0,
      "operate": 0,
      "nickname": "鲁班一号",
      "headimgurl": "",
      "crtDateTime": 0
    },
    {
      "nowDate": 0,
      "operate": 0,
      "nickname": "鲁班一号",
      "headimgurl": "",
      "crtDateTime": 0
    },
    {
      "nowDate": 0,
      "operate": 0,
      "nickname": "鲁班一号",
      "headimgurl": "",
      "crtDateTime": 0
    },
    {
      "nowDate": 0,
      "operate": 0,
      "nickname": "鲁班一号",
      "headimgurl": "",
      "crtDateTime": 0
    },
    {
      "nowDate": 0,
      "operate": 0,
      "nickname": "鲁班一号",
      "headimgurl": "",
      "crtDateTime": 0
    },
    {
      "nowDate": 0,
      "operate": 0,
      "nickname": "鲁班一号",
      "headimgurl": "",
      "crtDateTime": 0
    }
  ],
  "totalPages": 2,
  "totalElements": 28,
  "page": 1,
  "size": 1
}