{
  "pageNum": 1,
  "pageSize": 1,
  "totalElements": 55,
  "totalPages": 4,
  "last": false,
  "first": true,
  "content": [
    {
      "wageSheetName": "超长名称超长名称超长名称超长名称超长名称超长名称超长名称超长名称超长名称超长名称超长名称超长名称超长名称",
      "withdrawalLedgerId": "e75d4557cea84269a9ff18f5925d4683",
      "entId": "a0f60ab285fb4fc997fc1d7da0822d3b",
      "accountId": "8f02079dce1b49a0b1b9c4f5c16ceb16",
      "account": "10250000003208171",
      "accountStar": "1025********8171",
      "accountName": "张三",
      "accountOpenBank": "华夏银行",
      "custName": "张三",
      "idNumber": "370782199612200038",
      "transAmount": 12000.0,
      "employeeCardNo": "6230200013873745",
      "walletNumber": "818010100100065002",
      "openBank": "华夏银行",
      "issueTime": 1626330899814,
      "fundType": 0,
      "fundTypeVal": "工资",
      "fundDate": 1,
      "fundDateVal": "1月份",
      "payDateTime": 192299361314600,
      "withdrawalStatus": 0,
      "withdrawalStatusVal": "待提现",
      "remark": "这是备注......",
      "year": 2021,
      "month": 7,
      "crtDateTime": 1626330899814,
      "updDateTime": 192299361360800,
      "accountStatus": 0,
      "accountStatusVal": "正常",
      "bankClose": true,
      "groupName": "云服务中心",
      "withdrawStatus": 0
    },
    {
      "wageSheetName": "超长名称超长名称超长名称11111111111112222222",
      "withdrawalLedgerId": "111114269a9ff18f5925d4683",
      "entId": "a0f60ab285fb4fc997fc1d7da0822d3b",
      "accountId": "8f02079dce1b49a0b1b9c4f5c16ceb16",
      "account": "10250000003209177",
      "accountStar": "1025********8171",
      "accountName": "张三",
      "accountOpenBank": "华夏银行",
      "custName": "张三",
      "idNumber": "370782199612200038",
      "transAmount": 0,
      "employeeCardNo": "6230200013873745",
      "walletNumber": "818010100100065002",
      "openBank": "华夏银行",
      "issueTime": 1626330899814,
      "fundType": 0,
      "fundTypeVal": "工资",
      "fundDate": 1,
      "fundDateVal": "1月份",
      "payDateTime": 192299361314600,
      "withdrawalStatus": 1,
      "withdrawalStatusVal": "提现成功",
      "remark": "这是备注......",
      "year": 2021,
      "month": 7,
      "crtDateTime": 1626330899814,
      "updDateTime": 192299361360800,
      "accountStatus": 0,
      "accountStatusVal": "正常",
      "bankClose": true,
      "groupName": "互金中心",
      "withdrawStatus": 1
    },
    {
      "wageSheetName": "超长名称超长名",
      "withdrawalLedgerId": "2222269a9ff18f5925d4683",
      "entId": "a0f60ab285fb4fc997fc1d7da0822d3b",
      "accountId": "8f02079dce1b49a0b1b9c4f5c16ceb16",
      "account": "10250000003208171",
      "accountStar": "1025********8171",
      "accountName": "张三",
      "accountOpenBank": "华夏银行",
      "custName": "张三",
      "idNumber": "370782199612200038",
      "transAmount": 1733.093,
      "employeeCardNo": "6230200013873745",
      "walletNumber": "818010100100065002",
      "openBank": "华夏银行",
      "issueTime": 1626330899814,
      "fundType": 0,
      "fundTypeVal": "工资",
      "fundDate": 1,
      "fundDateVal": "1月份",
      "payDateTime": 192299361314600,
      "withdrawalStatus": 2,
      "withdrawalStatusVal": "实现失败",
      "remark": "这是备注......",
      "year": 2021,
      "month": 7,
      "crtDateTime": 1626330899814,
      "updDateTime": 192299361360800,
      "accountStatus": 1,
      "accountStatusVal": "异常",
      "bankClose": false,
      "withdrawStatus": 1
    },
    {
      "wageSheetName": "超长名称超长名22",
      "withdrawalLedgerId": "e75d4557cea84269a9ff18f5925d4683",
      "entId": "a0f60ab285fb4fc997fc1d7da0822d3b",
      "accountId": "8f02079dce1b49a0b1b9c4f5c16ceb16",
      "account": "10250000003208171",
      "accountStar": "1025********8171",
      "accountName": "张三",
      "accountOpenBank": "华夏银行",
      "custName": "张三",
      "idNumber": "370782199612200038",
      "transAmount": 12000.0,
      "employeeCardNo": "6230200013873745",
      "walletNumber": "818010100100065002",
      "openBank": "华夏银行",
      "issueTime": 1626330899814,
      "fundType": 0,
      "fundTypeVal": "工资",
      "fundDate": 1,
      "fundDateVal": "1月份",
      "payDateTime": 192299361314600,
      "withdrawalStatus": 2,
      "withdrawalStatusVal": "提现失败",
      "remark": "这是备注......",
      "year": 2021,
      "month": 6,
      "crtDateTime": 1626330899814,
      "updDateTime": 192299361360800,
      "accountStatus": 0,
      "accountStatusVal": "正常",
      "bankClose": false,
      "withdrawStatus": 1
    },
    {
      "wageSheetName": "超长名称超长名333",
      "withdrawalLedgerId": "e75d4557cea84269a9ff18f5925d4683",
      "entId": "a0f60ab285fb4fc997fc1d7da0822d3b",
      "accountId": "8f02079dce1b49a0b1b9c4f5c16ceb16",
      "account": "10250000003208171",
      "accountStar": "1025********8171",
      "accountName": "张三",
      "accountOpenBank": "华夏银行",
      "custName": "张三",
      "idNumber": "370782199612200038",
      "transAmount": 12000.0,
      "employeeCardNo": "6230200013873745",
      "walletNumber": "818010100100065002",
      "openBank": "华夏银行",
      "issueTime": 1626330899814,
      "fundType": 0,
      "fundTypeVal": "工资",
      "fundDate": 1,
      "fundDateVal": "1月份",
      "payDateTime": 192299361314600,
      "withdrawalStatus": 3,
      "withdrawalStatusVal": "处理中",
      "remark": "这是备注......",
      "year": 2021,
      "month": 6,
      "crtDateTime": 1626330899814,
      "updDateTime": 192299361360800,
      "accountStatus": 1,
      "accountStatusVal": "异常",
      "bankClose": false,
      "withdrawStatus": 1
    },
    {
      "wageSheetName": "超长名称超长名12333333",
      "withdrawalLedgerId": "e75d4557cea84269a9ff18f5925d4683",
      "entId": "a0f60ab285fb4fc997fc1d7da0822d3b",
      "accountId": "8f02079dce1b49a0b1b9c4f5c16ceb16",
      "account": "10250000003208171",
      "accountStar": "1025********8171",
      "accountName": "张三",
      "accountOpenBank": "华夏银行",
      "custName": "张三",
      "idNumber": "370782199612200038",
      "transAmount": 0,
      "employeeCardNo": "6230200013873745",
      "walletNumber": "818010100100065002",
      "openBank": "华夏银行",
      "issueTime": 1626330899814,
      "fundType": 0,
      "fundTypeVal": "工资",
      "fundDate": 1,
      "fundDateVal": "1月份",
      "payDateTime": 192299361314600,
      "withdrawalStatus": 0,
      "withdrawalStatusVal": "待提现",
      "remark": "这是备注......",
      "year": 2021,
      "month": 5,
      "crtDateTime": 1626330899814,
      "updDateTime": 192299361360800,
      "accountStatus": 0,
      "accountStatusVal": "正常",
      "bankClose": false,
      "withdrawStatus": 1
    },
    {
      "wageSheetName": "超长名称超长名099",
      "withdrawalLedgerId": "e75d4557cea84269a9ff18f5925d4683",
      "entId": "a0f60ab285fb4fc997fc1d7da0822d3b",
      "accountId": "8f02079dce1b49a0b1b9c4f5c16ceb16",
      "account": "10250000003208171",
      "accountStar": "1025********8171",
      "accountName": "张三",
      "accountOpenBank": "华夏银行",
      "custName": "张三",
      "idNumber": "370782199612200038",
      "transAmount": 12000.0,
      "employeeCardNo": "6230200013873745",
      "walletNumber": "818010100100065002",
      "openBank": "华夏银行",
      "issueTime": 1626330899814,
      "fundType": 0,
      "fundTypeVal": "工资",
      "fundDate": 1,
      "fundDateVal": "1月份",
      "payDateTime": 192299361314600,
      "withdrawalStatus": 0,
      "withdrawalStatusVal": "待提现",
      "remark": "这是备注......",
      "year": 2021,
      "month": 1,
      "crtDateTime": 1626330899814,
      "updDateTime": 192299361360800,
      "accountStatus": 0,
      "accountStatusVal": "正常",
      "bankClose": false,
      "withdrawStatus": 1
    },
    {
      "wageSheetName": "超长名称超长名3333",
      "withdrawalLedgerId": "e75d4557cea84269a9ff18f5925d4683",
      "entId": "a0f60ab285fb4fc997fc1d7da0822d3b",
      "accountId": "8f02079dce1b49a0b1b9c4f5c16ceb16",
      "account": "10250000003208171",
      "accountStar": "1025********8171",
      "accountName": "张三",
      "accountOpenBank": "华夏银行",
      "custName": "张三",
      "idNumber": "370782199612200038",
      "transAmount": 12000.0,
      "employeeCardNo": "6230200013873745",
      "walletNumber": "818010100100065002",
      "openBank": "华夏银行",
      "issueTime": 1626330899814,
      "fundType": 0,
      "fundTypeVal": "工资",
      "fundDate": 1,
      "fundDateVal": "1月份",
      "payDateTime": 192299361314600,
      "withdrawalStatus": 0,
      "withdrawalStatusVal": "待提现",
      "remark": "这是备注......",
      "year": 2020,
      "month": 12,
      "crtDateTime": 1626330899814,
      "updDateTime": 192299361360800,
      "accountStatus": 0,
      "accountStatusVal": "正常",
      "bankClose": false,
      "withdrawStatus": 1
    },
    {
      "wageSheetName": "超长名称超长名",
      "withdrawalLedgerId": "e75d4557cea84269a9ff18f5925d4683",
      "entId": "a0f60ab285fb4fc997fc1d7da0822d3b",
      "accountId": "8f02079dce1b49a0b1b9c4f5c16ceb16",
      "account": "10250000003208171",
      "accountStar": "1025********8171",
      "accountName": "张三",
      "accountOpenBank": "华夏银行",
      "custName": "张三",
      "idNumber": "370782199612200038",
      "transAmount": 12000.0,
      "employeeCardNo": "6230200013873745",
      "walletNumber": "818010100100065002",
      "openBank": "华夏银行",
      "issueTime": 1626330899814,
      "fundType": 0,
      "fundTypeVal": "工资",
      "fundDate": 1,
      "fundDateVal": "1月份",
      "payDateTime": 192299361314600,
      "withdrawalStatus": 0,
      "withdrawalStatusVal": "待提现",
      "remark": "这是备注......",
      "year": 2020,
      "month": 12,
      "crtDateTime": 1626330899814,
      "updDateTime": 192299361360800,
      "accountStatus": 0,
      "accountStatusVal": "正常",
      "bankClose": false,
      "withdrawStatus": 1
    },
    {
      "wageSheetName": "超长名称超长名34555",
      "withdrawalLedgerId": "e75d4557cea84269a9ff18f5925d4683",
      "entId": "a0f60ab285fb4fc997fc1d7da0822d3b",
      "accountId": "8f02079dce1b49a0b1b9c4f5c16ceb16",
      "account": "10250000003208171",
      "accountStar": "1025********8171",
      "accountName": "张三",
      "accountOpenBank": "华夏银行",
      "custName": "张三",
      "idNumber": "370782199612200038",
      "transAmount": 12000.0,
      "employeeCardNo": "6230200013873745",
      "walletNumber": "818010100100065002",
      "openBank": "华夏银行",
      "issueTime": 1626330899814,
      "fundType": 0,
      "fundTypeVal": "工资",
      "fundDate": 1,
      "fundDateVal": "1月份",
      "payDateTime": 192299361314600,
      "withdrawalStatus": 0,
      "withdrawalStatusVal": "待提现",
      "remark": "这是备注......",
      "year": 2020,
      "month": 8,
      "crtDateTime": 1626330899814,
      "updDateTime": 192299361360800,
      "accountStatus": 0,
      "accountStatusVal": "正常",
      "bankClose": false,
      "withdrawStatus": 1
    },
    {
      "wageSheetName": "超长名称超长名87444",
      "withdrawalLedgerId": "e75d4557cea84269a9ff18f5925d4683",
      "entId": "a0f60ab285fb4fc997fc1d7da0822d3b",
      "accountId": "8f02079dce1b49a0b1b9c4f5c16ceb16",
      "account": "10250000003208171",
      "accountStar": "1025********8171",
      "accountName": "张三",
      "accountOpenBank": "华夏银行",
      "custName": "张三",
      "idNumber": "370782199612200038",
      "transAmount": 12000.0,
      "employeeCardNo": "6230200013873745",
      "walletNumber": "818010100100065002",
      "openBank": "华夏银行",
      "issueTime": 1626330899814,
      "fundType": 0,
      "fundTypeVal": "工资",
      "fundDate": 1,
      "fundDateVal": "1月份",
      "payDateTime": 192299361314600,
      "withdrawalStatus": 1,
      "withdrawalStatusVal": "提现成功",
      "remark": "这是备注......",
      "year": 2020,
      "month": 8,
      "crtDateTime": 1626330899814,
      "updDateTime": 192299361360800,
      "accountStatus": 0,
      "accountStatusVal": "正常",
      "bankClose": true,
      "withdrawStatus": 1
    },
    {
      "wageSheetName": "超长名称超长名3944044",
      "withdrawalLedgerId": "e75d4557cea84269a9ff18f5925d4683",
      "entId": "a0f60ab285fb4fc997fc1d7da0822d3b",
      "accountId": "8f02079dce1b49a0b1b9c4f5c16ceb16",
      "account": "10250000003208171",
      "accountStar": "1025********8171",
      "accountName": "张三",
      "accountOpenBank": "华夏银行",
      "custName": "张三",
      "idNumber": "370782199612200038",
      "transAmount": 12000.0,
      "employeeCardNo": "6230200013873745",
      "walletNumber": "818010100100065002",
      "openBank": "华夏银行",
      "issueTime": 1626330899814,
      "fundType": 0,
      "fundTypeVal": "工资",
      "fundDate": 1,
      "fundDateVal": "1月份",
      "payDateTime": 192299361314600,
      "withdrawalStatus": 0,
      "withdrawalStatusVal": "待提现",
      "remark": "这是备注......",
      "year": 2020,
      "month": 8,
      "crtDateTime": 1626330899814,
      "updDateTime": 192299361360800,
      "accountStatus": 0,
      "accountStatusVal": "正常",
      "bankClose": true,
      "withdrawStatus": 1
    }
  ],
  "rankNo": 0,
  "sum": null,
  "tjNum": null,
  "tjSum": null
}
